{"failedCount":0,"prefixedPath":"classpath:examples\/users\/getapi.feature","packageQualifiedName":"examples.users.getapi","loopIndex":-1,"relativePath":"examples\/users\/getapi.feature","scenarioResults":[{"sectionIndex":0,"stepResults":[{"result":{"nanos":2458916,"millis":2.458916,"status":"passed"},"step":{"line":5,"prefix":"Given","index":0,"text":"url baseUrl"},"stepLog":"21:18:26.522 karate.env system property was: null \n"},{"result":{"nanos":872779917,"millis":872.779917,"status":"passed"},"step":{"line":6,"prefix":"When","index":1,"text":"method GET"},"stepLog":"21:18:26.969 request:\n1 > GET https:\/\/reqres.in\/api\/users?page=2\n1 > Host: reqres.in\n1 > Connection: Keep-Alive\n1 > User-Agent: Apache-HttpClient\/4.5.14 (Java\/11.0.19)\n1 > Accept-Encoding: gzip,deflate\n\n\n21:18:27.426 response time in milliseconds: 450\n1 < 200\n1 < Date: Wed, 13 Dec 2023 15:48:27 GMT\n1 < Content-Type: application\/json; charset=utf-8\n1 < Transfer-Encoding: chunked\n1 < Connection: keep-alive\n1 < Report-To: {\"group\":\"heroku-nel\",\"max_age\":3600,\"endpoints\":[{\"url\":\"https:\/\/nel.heroku.com\/reports?ts=1702405169&sid=c4c9725f-1ab0-44d8-820f-430df2718e11&s=gNCWsDzq4XtMIfq1h4ng6DXrw71LH%2FW4ug%2Fp4y2WCek%3D\"}]}\n1 < Reporting-Endpoints: heroku-nel=https:\/\/nel.heroku.com\/reports?ts=1702405169&sid=c4c9725f-1ab0-44d8-820f-430df2718e11&s=gNCWsDzq4XtMIfq1h4ng6DXrw71LH%2FW4ug%2Fp4y2WCek%3D\n1 < Nel: {\"report_to\":\"heroku-nel\",\"max_age\":3600,\"success_fraction\":0.005,\"failure_fraction\":0.05,\"response_headers\":[\"Via\"]}\n1 < X-Powered-By: Express\n1 < Access-Control-Allow-Origin: *\n1 < Etag: W\/\"406-ut0vzoCuidvyMf8arZpMpJ6ZRDw\"\n1 < Via: 1.1 vegur\n1 < Cache-Control: max-age=14400\n1 < CF-Cache-Status: HIT\n1 < Age: 2773\n1 < Vary: Accept-Encoding\n1 < Server: cloudflare\n1 < CF-RAY: 834f59f7ad8f8528-BOM\n{\"page\":2,\"per_page\":6,\"total\":12,\"total_pages\":2,\"data\":[{\"id\":7,\"email\":\"michael.lawson@reqres.in\",\"first_name\":\"Michael\",\"last_name\":\"Lawson\",\"avatar\":\"https:\/\/reqres.in\/img\/faces\/7-image.jpg\"},{\"id\":8,\"email\":\"lindsay.ferguson@reqres.in\",\"first_name\":\"Lindsay\",\"last_name\":\"Ferguson\",\"avatar\":\"https:\/\/reqres.in\/img\/faces\/8-image.jpg\"},{\"id\":9,\"email\":\"tobias.funke@reqres.in\",\"first_name\":\"Tobias\",\"last_name\":\"Funke\",\"avatar\":\"https:\/\/reqres.in\/img\/faces\/9-image.jpg\"},{\"id\":10,\"email\":\"byron.fields@reqres.in\",\"first_name\":\"Byron\",\"last_name\":\"Fields\",\"avatar\":\"https:\/\/reqres.in\/img\/faces\/10-image.jpg\"},{\"id\":11,\"email\":\"george.edwards@reqres.in\",\"first_name\":\"George\",\"last_name\":\"Edwards\",\"avatar\":\"https:\/\/reqres.in\/img\/faces\/11-image.jpg\"},{\"id\":12,\"email\":\"rachel.howell@reqres.in\",\"first_name\":\"Rachel\",\"last_name\":\"Howell\",\"avatar\":\"https:\/\/reqres.in\/img\/faces\/12-image.jpg\"}],\"support\":{\"url\":\"https:\/\/reqres.in\/#support-heading\",\"text\":\"To keep ReqRes free, contributions towards server costs are appreciated!\"}}\n\n"},{"result":{"nanos":328750,"millis":0.32875,"status":"passed"},"step":{"line":7,"prefix":"Then","index":2,"text":"status 200"}},{"result":{"nanos":20499458,"millis":20.499458,"status":"passed"},"step":{"line":8,"prefix":"*","index":3,"text":"print response"},"stepLog":"21:18:27.498 [print] {\n  \"page\": 2,\n  \"per_page\": 6,\n  \"total\": 12,\n  \"total_pages\": 2,\n  \"data\": [\n    {\n      \"id\": 7,\n      \"email\": \"michael.lawson@reqres.in\",\n      \"first_name\": \"Michael\",\n      \"last_name\": \"Lawson\",\n      \"avatar\": \"https:\/\/reqres.in\/img\/faces\/7-image.jpg\"\n    },\n    {\n      \"id\": 8,\n      \"email\": \"lindsay.ferguson@reqres.in\",\n      \"first_name\": \"Lindsay\",\n      \"last_name\": \"Ferguson\",\n      \"avatar\": \"https:\/\/reqres.in\/img\/faces\/8-image.jpg\"\n    },\n    {\n      \"id\": 9,\n      \"email\": \"tobias.funke@reqres.in\",\n      \"first_name\": \"Tobias\",\n      \"last_name\": \"Funke\",\n      \"avatar\": \"https:\/\/reqres.in\/img\/faces\/9-image.jpg\"\n    },\n    {\n      \"id\": 10,\n      \"email\": \"byron.fields@reqres.in\",\n      \"first_name\": \"Byron\",\n      \"last_name\": \"Fields\",\n      \"avatar\": \"https:\/\/reqres.in\/img\/faces\/10-image.jpg\"\n    },\n    {\n      \"id\": 11,\n      \"email\": \"george.edwards@reqres.in\",\n      \"first_name\": \"George\",\n      \"last_name\": \"Edwards\",\n      \"avatar\": \"https:\/\/reqres.in\/img\/faces\/11-image.jpg\"\n    },\n    {\n      \"id\": 12,\n      \"email\": \"rachel.howell@reqres.in\",\n      \"first_name\": \"Rachel\",\n      \"last_name\": \"Howell\",\n      \"avatar\": \"https:\/\/reqres.in\/img\/faces\/12-image.jpg\"\n    }\n  ],\n  \"support\": {\n    \"url\": \"https:\/\/reqres.in\/#support-heading\",\n    \"text\": \"To keep ReqRes free, contributions towards server costs are appreciated!\"\n  }\n}\n \n"},{"result":{"nanos":2637875,"millis":2.637875,"status":"passed"},"step":{"line":9,"prefix":"*","index":4,"text":"def jsonResponse = response"}},{"result":{"nanos":2712042,"millis":2.712042,"status":"passed"},"step":{"line":10,"prefix":"*","index":5,"text":"print jsonResponse"},"stepLog":"21:18:27.505 [print] {\n  \"page\": 2,\n  \"per_page\": 6,\n  \"total\": 12,\n  \"total_pages\": 2,\n  \"data\": [\n    {\n      \"id\": 7,\n      \"email\": \"michael.lawson@reqres.in\",\n      \"first_name\": \"Michael\",\n      \"last_name\": \"Lawson\",\n      \"avatar\": \"https:\/\/reqres.in\/img\/faces\/7-image.jpg\"\n    },\n    {\n      \"id\": 8,\n      \"email\": \"lindsay.ferguson@reqres.in\",\n      \"first_name\": \"Lindsay\",\n      \"last_name\": \"Ferguson\",\n      \"avatar\": \"https:\/\/reqres.in\/img\/faces\/8-image.jpg\"\n    },\n    {\n      \"id\": 9,\n      \"email\": \"tobias.funke@reqres.in\",\n      \"first_name\": \"Tobias\",\n      \"last_name\": \"Funke\",\n      \"avatar\": \"https:\/\/reqres.in\/img\/faces\/9-image.jpg\"\n    },\n    {\n      \"id\": 10,\n      \"email\": \"byron.fields@reqres.in\",\n      \"first_name\": \"Byron\",\n      \"last_name\": \"Fields\",\n      \"avatar\": \"https:\/\/reqres.in\/img\/faces\/10-image.jpg\"\n    },\n    {\n      \"id\": 11,\n      \"email\": \"george.edwards@reqres.in\",\n      \"first_name\": \"George\",\n      \"last_name\": \"Edwards\",\n      \"avatar\": \"https:\/\/reqres.in\/img\/faces\/11-image.jpg\"\n    },\n    {\n      \"id\": 12,\n      \"email\": \"rachel.howell@reqres.in\",\n      \"first_name\": \"Rachel\",\n      \"last_name\": \"Howell\",\n      \"avatar\": \"https:\/\/reqres.in\/img\/faces\/12-image.jpg\"\n    }\n  ],\n  \"support\": {\n    \"url\": \"https:\/\/reqres.in\/#support-heading\",\n    \"text\": \"To keep ReqRes free, contributions towards server costs are appreciated!\"\n  }\n}\n \n"},{"result":{"nanos":7507334,"millis":7.507334,"status":"passed"},"step":{"line":11,"prefix":"*","index":6,"text":"def actName = jsonResponse.data[0].last_name"}},{"result":{"nanos":1047083,"millis":1.047083,"status":"passed"},"step":{"line":12,"prefix":"*","index":7,"text":"print actName"},"stepLog":"21:18:27.515 [print] Lawson \n"},{"result":{"nanos":34751375,"millis":34.751375,"status":"passed"},"step":{"line":13,"prefix":"*","index":8,"text":"match actName == 'Lawson'"}}],"executorName":"main","line":3,"name":"get user details","description":"","durationMillis":944.72275,"startTime":1702482506335,"failed":false,"refId":"[1:3]","endTime":1702482507550,"exampleIndex":-1},{"sectionIndex":1,"stepResults":[{"result":{"nanos":133875,"millis":0.133875,"status":"passed"},"step":{"line":18,"prefix":"Given","index":0,"text":"url baseUrl"},"stepLog":"21:18:27.587 karate.env system property was: null \n"},{"result":{"nanos":168378709,"millis":168.378709,"status":"passed"},"step":{"line":19,"prefix":"When","index":1,"text":"method GET"},"stepLog":"21:18:27.594 request:\n1 > GET https:\/\/reqres.in\/api\/users?page=2\n1 > Host: reqres.in\n1 > Connection: Keep-Alive\n1 > User-Agent: Apache-HttpClient\/4.5.14 (Java\/11.0.19)\n1 > Accept-Encoding: gzip,deflate\n\n\n21:18:27.752 response time in milliseconds: 156\n1 < 200\n1 < Date: Wed, 13 Dec 2023 15:48:27 GMT\n1 < Content-Type: application\/json; charset=utf-8\n1 < Transfer-Encoding: chunked\n1 < Connection: keep-alive\n1 < Report-To: {\"group\":\"heroku-nel\",\"max_age\":3600,\"endpoints\":[{\"url\":\"https:\/\/nel.heroku.com\/reports?ts=1702405169&sid=c4c9725f-1ab0-44d8-820f-430df2718e11&s=gNCWsDzq4XtMIfq1h4ng6DXrw71LH%2FW4ug%2Fp4y2WCek%3D\"}]}\n1 < Reporting-Endpoints: heroku-nel=https:\/\/nel.heroku.com\/reports?ts=1702405169&sid=c4c9725f-1ab0-44d8-820f-430df2718e11&s=gNCWsDzq4XtMIfq1h4ng6DXrw71LH%2FW4ug%2Fp4y2WCek%3D\n1 < Nel: {\"report_to\":\"heroku-nel\",\"max_age\":3600,\"success_fraction\":0.005,\"failure_fraction\":0.05,\"response_headers\":[\"Via\"]}\n1 < X-Powered-By: Express\n1 < Access-Control-Allow-Origin: *\n1 < Etag: W\/\"406-ut0vzoCuidvyMf8arZpMpJ6ZRDw\"\n1 < Via: 1.1 vegur\n1 < Cache-Control: max-age=14400\n1 < CF-Cache-Status: HIT\n1 < Age: 2773\n1 < Vary: Accept-Encoding\n1 < Server: cloudflare\n1 < CF-RAY: 834f59f9b9a6846b-BOM\n{\"page\":2,\"per_page\":6,\"total\":12,\"total_pages\":2,\"data\":[{\"id\":7,\"email\":\"michael.lawson@reqres.in\",\"first_name\":\"Michael\",\"last_name\":\"Lawson\",\"avatar\":\"https:\/\/reqres.in\/img\/faces\/7-image.jpg\"},{\"id\":8,\"email\":\"lindsay.ferguson@reqres.in\",\"first_name\":\"Lindsay\",\"last_name\":\"Ferguson\",\"avatar\":\"https:\/\/reqres.in\/img\/faces\/8-image.jpg\"},{\"id\":9,\"email\":\"tobias.funke@reqres.in\",\"first_name\":\"Tobias\",\"last_name\":\"Funke\",\"avatar\":\"https:\/\/reqres.in\/img\/faces\/9-image.jpg\"},{\"id\":10,\"email\":\"byron.fields@reqres.in\",\"first_name\":\"Byron\",\"last_name\":\"Fields\",\"avatar\":\"https:\/\/reqres.in\/img\/faces\/10-image.jpg\"},{\"id\":11,\"email\":\"george.edwards@reqres.in\",\"first_name\":\"George\",\"last_name\":\"Edwards\",\"avatar\":\"https:\/\/reqres.in\/img\/faces\/11-image.jpg\"},{\"id\":12,\"email\":\"rachel.howell@reqres.in\",\"first_name\":\"Rachel\",\"last_name\":\"Howell\",\"avatar\":\"https:\/\/reqres.in\/img\/faces\/12-image.jpg\"}],\"support\":{\"url\":\"https:\/\/reqres.in\/#support-heading\",\"text\":\"To keep ReqRes free, contributions towards server costs are appreciated!\"}}\n\n"},{"result":{"nanos":15042,"millis":0.015042,"status":"passed"},"step":{"line":20,"prefix":"Then","index":2,"text":"status 200"}}],"executorName":"main","line":16,"name":"get user details user not found","description":"","durationMillis":168.527626,"startTime":1702482507580,"failed":false,"refId":"[2:16]","endTime":1702482507760,"exampleIndex":-1}],"callDepth":0,"name":"GET API Feature","description":"","resultDate":"2023-12-13 09:18:27 PM","durationMillis":1113.250376,"passedCount":2}